a:14:{i:0;a:3:{i:0;s:14:"document_start";i:1;a:0:{}i:2;i:0;}i:1;a:3:{i:0;s:6:"p_open";i:1;a:0:{}i:2;i:0;}i:2;a:3:{i:0;s:5:"cdata";i:1;a:1:{i:0;s:80:"Ci-dessous des infos sur les membres de The-Delta ayant renseigné·e leur page.";}i:2;i:1;}i:3;a:3:{i:0;s:7:"p_close";i:1;a:0:{}i:2;i:81;}i:4;a:3:{i:0;s:6:"plugin";i:1;a:4:{i:0;s:10:"data_table";i:1;a:13:{s:7:"classes";s:4:"user";s:5:"limit";i:16;s:10:"dynfilters";b:0;s:9:"summarize";b:0;s:10:"rownumbers";b:0;s:12:"sepbyheaders";b:0;s:7:"headers";a:5:{i:0;s:6:"pseudo";i:1;s:5:"genre";i:2;s:8:"courriel";i:3;s:3:"GPG";i:4;s:10:"personnage";}s:6:"widths";a:0:{}s:6:"filter";a:0:{}s:4:"cols";a:5:{s:8:"%pageid%";a:6:{s:7:"colname";s:8:"%pageid%";s:5:"multi";b:0;s:3:"key";s:8:"%pageid%";s:7:"origkey";s:8:"%pageid%";s:5:"title";s:5:"Titre";s:4:"type";s:4:"page";}s:5:"genre";a:6:{s:7:"colname";s:5:"genre";s:5:"multi";b:0;s:3:"key";s:5:"genre";s:7:"origkey";s:5:"genre";s:5:"title";s:5:"genre";s:4:"type";s:0:"";}s:8:"courriel";a:6:{s:7:"colname";s:8:"courriel";s:5:"multi";b:0;s:3:"key";s:8:"courriel";s:7:"origkey";s:8:"courriel";s:5:"title";s:8:"courriel";s:4:"type";s:0:"";}s:3:"gpg";a:6:{s:7:"colname";s:3:"GPG";s:5:"multi";b:0;s:3:"key";s:3:"gpg";s:7:"origkey";s:3:"GPG";s:5:"title";s:3:"GPG";s:4:"type";s:0:"";}s:10:"personnage";a:6:{s:7:"colname";s:10:"personnage";s:5:"multi";b:0;s:3:"key";s:10:"personnage";s:7:"origkey";s:10:"personnage";s:5:"title";s:10:"personnage";s:4:"type";s:0:"";}}s:4:"sort";a:2:{i:0;s:8:"%pageid%";i:1;s:4:"DESC";}s:3:"sql";s:730:"SELECT " " || pages.page, group_concat(" " || T1.value,'
'), group_concat(" " || T2.value,'
'), group_concat(" " || T3.value,'
'), group_concat(" " || T4.value,'
')
                FROM (
                    SELECT DISTINCT pages.pid AS pid
                    FROM pages 
                    WHERE 1 = 1
                ) AS W1 
                 LEFT JOIN data AS T1 ON T1.pid = W1.pid AND T1.key = 'genre' LEFT JOIN data AS T2 ON T2.pid = W1.pid AND T2.key = 'courriel' LEFT JOIN data AS T3 ON T3.pid = W1.pid AND T3.key = 'gpg' LEFT JOIN data AS T4 ON T4.pid = W1.pid AND T4.key = 'personnage'
                LEFT JOIN pages ON W1.pid=pages.pid
                GROUP BY W1.pid
                ORDER BY pages.page DESC LIMIT 17";s:9:"cur_param";a:0:{}}i:2;i:5;i:3;s:166:"---- datatable user ----
cols    : %pageid%, genre, courriel, GPG, personnage
headers : pseudo, genre, courriel, GPG, personnage
max     : 16
sort    : ^%pageid%
----";}i:2;i:83;}i:5;a:3:{i:0;s:6:"p_open";i:1;a:0:{}i:2;i:83;}i:6;a:3:{i:0;s:5:"cdata";i:1;a:1:{i:0;s:182:"Je vous invite a créer votre page utilisateur & fiche personnage en allant sur le lien juste après « Connecté en tant que » dans les Outils utilisateurs ou en tapant « user:";}i:2;i:251;}i:7;a:3:{i:0;s:13:"emphasis_open";i:1;a:0:{}i:2;i:433;}i:8;a:3:{i:0;s:5:"cdata";i:1;a:1:{i:0;s:17:"votre_utilisateur";}i:2;i:435;}i:9;a:3:{i:0;s:14:"emphasis_close";i:1;a:0:{}i:2;i:452;}i:10;a:3:{i:0;s:5:"cdata";i:1;a:1:{i:0;s:79:" » dans le champ de recherche puis en cliquant sur « Créer cette page ».";}i:2;i:454;}i:11;a:3:{i:0;s:7:"p_close";i:1;a:0:{}i:2;i:533;}i:12;a:3:{i:0;s:6:"plugin";i:1;a:4:{i:0;s:12:"data_related";i:1;a:12:{s:7:"classes";s:4:"user";s:5:"limit";i:0;s:10:"dynfilters";b:0;s:9:"summarize";b:0;s:10:"rownumbers";b:0;s:12:"sepbyheaders";b:0;s:7:"headers";a:5:{i:0;s:6:"pseudo";i:1;s:5:"genre";i:2;s:8:"courriel";i:3;s:3:"GPG";i:4;s:10:"personnage";}s:6:"widths";a:0:{}s:6:"filter";a:0:{}s:4:"cols";a:5:{s:6:"pseudo";a:6:{s:7:"colname";s:6:"pseudo";s:5:"multi";b:0;s:3:"key";s:6:"pseudo";s:7:"origkey";s:6:"pseudo";s:5:"title";s:6:"pseudo";s:4:"type";s:0:"";}s:5:"genre";a:6:{s:7:"colname";s:5:"genre";s:5:"multi";b:0;s:3:"key";s:5:"genre";s:7:"origkey";s:5:"genre";s:5:"title";s:5:"genre";s:4:"type";s:0:"";}s:8:"courriel";a:6:{s:7:"colname";s:8:"courriel";s:5:"multi";b:0;s:3:"key";s:8:"courriel";s:7:"origkey";s:8:"courriel";s:5:"title";s:8:"courriel";s:4:"type";s:0:"";}s:3:"gpg";a:6:{s:7:"colname";s:3:"GPG";s:5:"multi";b:0;s:3:"key";s:3:"gpg";s:7:"origkey";s:3:"GPG";s:5:"title";s:3:"GPG";s:4:"type";s:0:"";}s:10:"personnage";a:6:{s:7:"colname";s:10:"personnage";s:5:"multi";b:0;s:3:"key";s:10:"personnage";s:7:"origkey";s:10:"personnage";s:5:"title";s:10:"personnage";s:4:"type";s:0:"";}}s:3:"sql";b:0;s:9:"cur_param";a:0:{}}i:2;i:5;i:3;s:91:"---- datarelated user ----
cols             : pseudo, genre, courriel, GPG, personnage
----";}i:2;i:535;}i:13;a:3:{i:0;s:12:"document_end";i:1;a:0:{}i:2;i:535;}}