a:18:{i:0;a:3:{i:0;s:14:"document_start";i:1;a:0:{}i:2;i:0;}i:1;a:3:{i:0;s:6:"p_open";i:1;a:0:{}i:2;i:0;}i:2;a:3:{i:0;s:5:"cdata";i:1;a:1:{i:0;s:71:"Ci-dessous la liste des utilisateurs ayant créer une fiche personnage.";}i:2;i:1;}i:3;a:3:{i:0;s:7:"p_close";i:1;a:0:{}i:2;i:72;}i:4;a:3:{i:0;s:6:"plugin";i:1;a:4:{i:0;s:10:"data_table";i:1;a:13:{s:7:"classes";s:5:"users";s:5:"limit";i:16;s:10:"dynfilters";b:0;s:9:"summarize";b:0;s:10:"rownumbers";b:0;s:12:"sepbyheaders";b:0;s:7:"headers";a:3:{i:0;s:6:"Pseudo";i:1;s:5:"Titre";i:2;s:10:"Personnage";}s:6:"widths";a:0:{}s:6:"filter";a:0:{}s:4:"cols";a:3:{s:8:"%pageid%";a:6:{s:7:"colname";s:8:"%pageid%";s:5:"multi";b:0;s:3:"key";s:8:"%pageid%";s:7:"origkey";s:8:"%pageid%";s:5:"title";s:5:"Titre";s:4:"type";s:4:"page";}s:5:"titre";a:6:{s:7:"colname";s:5:"Titre";s:5:"multi";b:0;s:3:"key";s:5:"titre";s:7:"origkey";s:5:"Titre";s:5:"title";s:5:"Titre";s:4:"type";s:0:"";}s:10:"personnage";a:6:{s:7:"colname";s:10:"Personnage";s:5:"multi";b:0;s:3:"key";s:10:"personnage";s:7:"origkey";s:10:"Personnage";s:5:"title";s:10:"Personnage";s:4:"type";s:0:"";}}s:4:"sort";a:2:{i:0;s:8:"%pageid%";i:1;s:4:"DESC";}s:3:"sql";s:537:"SELECT " " || pages.page, group_concat(" " || T1.value,'
'), group_concat(" " || T2.value,'
')
                FROM (
                    SELECT DISTINCT pages.pid AS pid
                    FROM pages 
                    WHERE 1 = 1
                ) AS W1 
                 LEFT JOIN data AS T1 ON T1.pid = W1.pid AND T1.key = 'titre' LEFT JOIN data AS T2 ON T2.pid = W1.pid AND T2.key = 'personnage'
                LEFT JOIN pages ON W1.pid=pages.pid
                GROUP BY W1.pid
                ORDER BY pages.page DESC LIMIT 17";s:9:"cur_param";a:0:{}}i:2;i:5;i:3;s:137:"---- datatable users ----
cols    : %pageid%, Titre, Personnage
headers : Pseudo, Titre, Personnage
max     : 16
sort    : ^%pageid%
----";}i:2;i:74;}i:5;a:3:{i:0;s:6:"p_open";i:1;a:0:{}i:2;i:74;}i:6;a:3:{i:0;s:5:"cdata";i:1;a:1:{i:0;s:82:"Je vous invite a créer votre page utilisateur & fiche personnage en tapant users:";}i:2;i:213;}i:7;a:3:{i:0;s:13:"emphasis_open";i:1;a:0:{}i:2;i:295;}i:8;a:3:{i:0;s:5:"cdata";i:1;a:1:{i:0;s:17:"votre_utilisateur";}i:2;i:297;}i:9;a:3:{i:0;s:14:"emphasis_close";i:1;a:0:{}i:2;i:314;}i:10;a:3:{i:0;s:5:"cdata";i:1;a:1:{i:0;s:49:" dans le champ de recherche puis en cliquant sur ";}i:2;i:316;}i:11;a:3:{i:0;s:13:"emphasis_open";i:1;a:0:{}i:2;i:365;}i:12;a:3:{i:0;s:5:"cdata";i:1;a:1:{i:0;s:17:"Créer cette page";}i:2;i:367;}i:13;a:3:{i:0;s:14:"emphasis_close";i:1;a:0:{}i:2;i:384;}i:14;a:3:{i:0;s:5:"cdata";i:1;a:1:{i:0;s:1:".";}i:2;i:386;}i:15;a:3:{i:0;s:7:"p_close";i:1;a:0:{}i:2;i:387;}i:16;a:3:{i:0;s:6:"plugin";i:1;a:4:{i:0;s:12:"data_related";i:1;a:12:{s:7:"classes";s:5:"users";s:5:"limit";i:0;s:10:"dynfilters";b:0;s:9:"summarize";b:0;s:10:"rownumbers";b:0;s:12:"sepbyheaders";b:0;s:7:"headers";a:2:{i:0;s:5:"Titre";i:1;s:10:"Personnage";}s:6:"widths";a:0:{}s:6:"filter";a:0:{}s:4:"cols";a:2:{s:5:"titre";a:6:{s:7:"colname";s:5:"Titre";s:5:"multi";b:0;s:3:"key";s:5:"titre";s:7:"origkey";s:5:"Titre";s:5:"title";s:5:"Titre";s:4:"type";s:0:"";}s:10:"personnage";a:6:{s:7:"colname";s:10:"Personnage";s:5:"multi";b:0;s:3:"key";s:10:"personnage";s:7:"origkey";s:10:"Personnage";s:5:"title";s:10:"Personnage";s:4:"type";s:0:"";}}s:3:"sql";b:0;s:9:"cur_param";a:0:{}}i:2;i:5;i:3;s:69:"---- datarelated users ----
cols             : Titre, Personnage
----";}i:2;i:389;}i:17;a:3:{i:0;s:12:"document_end";i:1;a:0:{}i:2;i:389;}}