a:3:{i:0;a:3:{i:0;s:14:"document_start";i:1;a:0:{}i:2;i:0;}i:1;a:3:{i:0;s:6:"plugin";i:1;a:4:{i:0;s:10:"data_entry";i:1;a:5:{s:4:"data";a:3:{s:6:"pseudo";s:5:"Namor";s:10:"personnage";s:6:"Zombie";s:8:"courriel";s:22:"romain.lalune@yahoo.fr";}s:4:"cols";a:3:{s:6:"pseudo";a:6:{s:7:"colname";s:6:"pseudo";s:5:"multi";b:0;s:3:"key";s:6:"pseudo";s:7:"origkey";s:6:"pseudo";s:5:"title";s:6:"pseudo";s:4:"type";s:0:"";}s:10:"personnage";a:6:{s:7:"colname";s:10:"personnage";s:5:"multi";b:0;s:3:"key";s:10:"personnage";s:7:"origkey";s:10:"personnage";s:5:"title";s:10:"personnage";s:4:"type";s:0:"";}s:8:"courriel";a:6:{s:7:"colname";s:8:"courriel";s:5:"multi";b:0;s:3:"key";s:8:"courriel";s:7:"origkey";s:8:"courriel";s:5:"title";s:8:"courriel";s:4:"type";s:0:"";}}s:7:"classes";s:4:"user";s:3:"pos";i:1;s:3:"len";i:125;}i:2;i:5;i:3;s:125:"---- dataentry user ----
pseudo            : Namor
personnage        : Zombie
courriel          : romain.lalune@yahoo.fr
----";}i:2;i:1;}i:2;a:3:{i:0;s:12:"document_end";i:1;a:0:{}i:2;i:1;}}