a:14:{i:0;a:3:{i:0;s:14:"document_start";i:1;a:0:{}i:2;i:0;}i:1;a:3:{i:0;s:6:"p_open";i:1;a:0:{}i:2;i:0;}i:2;a:3:{i:0;s:5:"cdata";i:1;a:1:{i:0;s:132:"Cette page contient les informations concernant l’administration système et réseau. D’autres sujets seront peut-être a venir.";}i:2;i:1;}i:3;a:3:{i:0;s:7:"p_close";i:1;a:0:{}i:2;i:134;}i:4;a:3:{i:0;s:6:"header";i:1;a:3:{i:0;s:34:"Administration système et réseau";i:1;i:1;i:2;i:134;}i:2;i:134;}i:5;a:3:{i:0;s:12:"section_open";i:1;a:1:{i:0;i:1;}i:2;i:134;}i:6;a:3:{i:0;s:6:"p_open";i:1;a:0:{}i:2;i:134;}i:7;a:3:{i:0;s:5:"cdata";i:1;a:1:{i:0;s:74:"Les journaux(logs) conservé sont seulement les erreurs et l’user-agent(";}i:2;i:183;}i:8;a:3:{i:0;s:12:"externallink";i:1;a:2:{i:0;s:40:"https://fr.wikipedia.org/wiki/User-agent";i:1;s:10:"Wikipédia";}i:2;i:257;}i:9;a:3:{i:0;s:5:"cdata";i:1;a:1:{i:0;s:199:"), ce dernier étant nettoyé de temps en temps en 2 fichiers, un de statistiques et un autre qui liste les différents user-agent. Voici la configuration du serveur apache du le 2015-01-02 23:04:22";}i:2;i:312;}i:10;a:3:{i:0;s:7:"p_close";i:1;a:0:{}i:2;i:517;}i:11;a:3:{i:0;s:4:"file";i:1;a:3:{i:0;s:3431:"
<VirtualHost *:80>
        DocumentRoot /srv/web/net/the-delta/
        <Directory />
                Options Indexes FollowSymLinks MultiViews
                AllowOverride None
                Order allow,deny
                allow from all
        </Directory>

        Alias /munin/ /var/cache/munin/www/
        <Directory /var/cache/munin/www/>
                Options Indexes FollowSymLinks MultiViews
                AllowOverride None
                Order allow,deny
                allow from all
        </Directory>

        ScriptAlias /munin-cgi/munin-cgi-graph /usr/lib/munin/cgi/munin-cgi-graph
        <Location /var/cache/munin-cgi/www/>
                Options +ExecCGI
                <IfModule mod_fcgid.c>
                        SetHandler fcgid-script
                </IfModule>
                <IfModule mod_fastcgi.c>
                        SetHandler fastcgi-script
                </IfModule>
                <IfModule !mod_fastcgi.c>
                        <IfModule !mod_fcgid.c>
                                SetHandler cgi-script
                        </IfModule>
                </IfModule>
        Allow from all
        </Location>

        ScriptAlias /munin-cgi/munin-cgi-html /usr/lib/munin/cgi/munin-cgi-html
        <Location /munin-cgi/munin-cgi-html>
                Options +ExecCGI
                <IfModule mod_fcgid.c>
                        SetHandler fcgid-script
                </IfModule>
                <IfModule mod_fastcgi.c>
                        SetHandler fastcgi-script
                </IfModule>
                <IfModule !mod_fastcgi.c>
                        <IfModule !mod_fcgid.c>
                                SetHandler cgi-script
                        </IfModule>
                </IfModule>
                Allow from all
        </Location>

        # Possible values include: debug, info, notice, warn, error, crit,
        # alert, emerg.
        LogLevel warn

        CustomLog ${APACHE_LOG_DIR}/user-agent.log user-agent
        ErrorLog ${APACHE_LOG_DIR}/error.log
</VirtualHost>   
<VirtualHost *:80>
        ServerName www.the-delta.net
        DocumentRoot /srv/web/net/the-delta/www/
        <Directory />
                Options Indexes FollowSymLinks MultiViews
                AllowOverride None
                Order allow,deny
                allow from all
        </Directory>

        # Possible values include: debug, info, notice, warn, error, crit,
        # alert, emerg.
        LogLevel warn

        CustomLog ${APACHE_LOG_DIR}/user-agent.log user-agent
        ErrorLog ${APACHE_LOG_DIR}/www.the-delta.net.log
</VirtualHost>

# Website of lanodan
<VirtualHost *:80>
        ServerName lanodan.fr.to
        DocumentRoot /srv/web/fr.to/lanodan/
        <Directory />
                Options Indexes FollowSymLinks MultiViews
                AllowOverride None
                Order allow,deny
                allow from all
        </Directory>

        # Possible values include: debug, info, notice, warn, error, crit,
        # alert, emerg.
        LogLevel warn

        CustomLog ${APACHE_LOG_DIR}/user-agent.log user-agent
        ErrorLog ${APACHE_LOG_DIR}/lanodan.fr.to.log
</VirtualHost>

# Hackish way to provide access to my laptop   
<VirtualHost *:80>
    ServerName derpi.the-delta.net

    ProxyPass / http://bulkeps.the-delta.net/
    ProxyPassReverse / http://bulkeps.the-delta.net/
</VirtualHost>   
";i:1;s:6:"apache";i:2;s:9:"http.conf";}i:2;i:517;}i:12;a:3:{i:0;s:13:"section_close";i:1;a:0:{}i:2;i:3973;}i:13;a:3:{i:0;s:12:"document_end";i:1;a:0:{}i:2;i:3973;}}