a:8:{i:0;a:3:{i:0;s:14:"document_start";i:1;a:0:{}i:2;i:0;}i:1;a:3:{i:0;s:6:"p_open";i:1;a:0:{}i:2;i:0;}i:2;a:3:{i:0;s:5:"cdata";i:1;a:1:{i:0;s:34:"Ceci sont des extraits des canaux ";}i:2;i:1;}i:3;a:3:{i:0;s:7:"acronym";i:1;a:1:{i:0;s:3:"IRC";}i:2;i:35;}i:4;a:3:{i:0;s:5:"cdata";i:1;a:1:{i:0;s:131:" de The-Delta. Il est préférable de demander avant aux personnes citées et de supprimer des informations plus ou moins privées.";}i:2;i:38;}i:5;a:3:{i:0;s:7:"p_close";i:1;a:0:{}i:2;i:175;}i:6;a:3:{i:0;s:4:"code";i:1;a:3:{i:0;s:250:"
[En parlant des différents messages d’erreur de IRC]
01:55:20 <@lanodan> En tout cas Blueghost a pas de probleme de ping ^^
01:55:45 <@lanodan> (il a quand meme sortit un IO error ;D)
01:59:41 *Blueghost has quit [Read error: Input/output error]
";i:1;N;i:2;N;}i:2;i:175;}i:7;a:3:{i:0;s:12:"document_end";i:1;a:0:{}i:2;i:175;}}