a:33:{i:0;a:3:{i:0;s:14:"document_start";i:1;a:0:{}i:2;i:0;}i:1;a:3:{i:0;s:6:"plugin";i:1;a:4:{i:0;s:10:"data_entry";i:1;N;i:2;i:5;i:3;s:102:"---- dataentry users ----
titre            : Fondateur
personnage       : Loup, Humain 2.0, Poney
----";}i:2;i:1;}i:2;a:3:{i:0;s:10:"listu_open";i:1;a:0:{}i:2;i:103;}i:3;a:3:{i:0;s:13:"listitem_open";i:1;a:1:{i:0;i:1;}i:2;i:103;}i:4;a:3:{i:0;s:16:"listcontent_open";i:1;a:0:{}i:2;i:103;}i:5;a:3:{i:0;s:5:"cdata";i:1;a:1:{i:0;s:70:" GPG: (0x4BBEBBAD) 8E4B AA5E E6FB D5A8 D04F  3BE5 C873 8479 4BBE BBAD ";}i:2;i:107;}i:6;a:3:{i:0;s:17:"listcontent_close";i:1;a:0:{}i:2;i:177;}i:7;a:3:{i:0;s:14:"listitem_close";i:1;a:0:{}i:2;i:177;}i:8;a:3:{i:0;s:13:"listitem_open";i:1;a:1:{i:0;i:1;}i:2;i:177;}i:9;a:3:{i:0;s:16:"listcontent_open";i:1;a:0:{}i:2;i:177;}i:10;a:3:{i:0;s:5:"cdata";i:1;a:1:{i:0;s:31:" Mail: haelwenn.monnier@free.fr";}i:2;i:181;}i:11;a:3:{i:0;s:17:"listcontent_close";i:1;a:0:{}i:2;i:212;}i:12;a:3:{i:0;s:14:"listitem_close";i:1;a:0:{}i:2;i:212;}i:13;a:3:{i:0;s:13:"listitem_open";i:1;a:1:{i:0;i:1;}i:2;i:212;}i:14;a:3:{i:0;s:16:"listcontent_open";i:1;a:0:{}i:2;i:212;}i:15;a:3:{i:0;s:5:"cdata";i:1;a:1:{i:0;s:1:" ";}i:2;i:216;}i:16;a:3:{i:0;s:7:"acronym";i:1;a:1:{i:0;s:4:"XMPP";}i:2;i:217;}i:17;a:3:{i:0;s:5:"cdata";i:1;a:1:{i:0;s:27:"/Jabber: lanodan@jappix.com";}i:2;i:221;}i:18;a:3:{i:0;s:17:"listcontent_close";i:1;a:0:{}i:2;i:248;}i:19;a:3:{i:0;s:14:"listitem_close";i:1;a:0:{}i:2;i:248;}i:20;a:3:{i:0;s:13:"listitem_open";i:1;a:1:{i:0;i:1;}i:2;i:248;}i:21;a:3:{i:0;s:16:"listcontent_open";i:1;a:0:{}i:2;i:248;}i:22;a:3:{i:0;s:5:"cdata";i:1;a:1:{i:0;s:18:" Twitter: @lanodan";}i:2;i:252;}i:23;a:3:{i:0;s:17:"listcontent_close";i:1;a:0:{}i:2;i:270;}i:24;a:3:{i:0;s:14:"listitem_close";i:1;a:0:{}i:2;i:270;}i:25;a:3:{i:0;s:13:"listitem_open";i:1;a:1:{i:0;i:1;}i:2;i:270;}i:26;a:3:{i:0;s:16:"listcontent_open";i:1;a:0:{}i:2;i:270;}i:27;a:3:{i:0;s:5:"cdata";i:1;a:1:{i:0;s:7:" Site: ";}i:2;i:274;}i:28;a:3:{i:0;s:12:"externallink";i:1;a:2:{i:0;s:29:"http://lanodan.the-delta.net/";i:1;N;}i:2;i:281;}i:29;a:3:{i:0;s:17:"listcontent_close";i:1;a:0:{}i:2;i:310;}i:30;a:3:{i:0;s:14:"listitem_close";i:1;a:0:{}i:2;i:310;}i:31;a:3:{i:0;s:11:"listu_close";i:1;a:0:{}i:2;i:310;}i:32;a:3:{i:0;s:12:"document_end";i:1;a:0:{}i:2;i:310;}}