a:18:{i:0;a:3:{i:0;s:14:"document_start";i:1;a:0:{}i:2;i:0;}i:1;a:3:{i:0;s:6:"p_open";i:1;a:0:{}i:2;i:0;}i:2;a:3:{i:0;s:5:"cdata";i:1;a:1:{i:0;s:71:"Ci-dessous la liste des utilisateurs ayant créer une fiche personnage.";}i:2;i:1;}i:3;a:3:{i:0;s:7:"p_close";i:1;a:0:{}i:2;i:72;}i:4;a:3:{i:0;s:6:"plugin";i:1;a:4:{i:0;s:10:"data_table";i:1;N;i:2;i:5;i:3;s:137:"---- datatable users ----
cols    : %pageid%, Titre, Personnage
headers : Pseudo, Titre, Personnage
max     : 16
sort    : ^%pageid%
----";}i:2;i:74;}i:5;a:3:{i:0;s:6:"p_open";i:1;a:0:{}i:2;i:74;}i:6;a:3:{i:0;s:5:"cdata";i:1;a:1:{i:0;s:82:"Je vous invite a créer votre page utilisateur & fiche personnage en tapant users:";}i:2;i:213;}i:7;a:3:{i:0;s:13:"emphasis_open";i:1;a:0:{}i:2;i:295;}i:8;a:3:{i:0;s:5:"cdata";i:1;a:1:{i:0;s:17:"votre_utilisateur";}i:2;i:297;}i:9;a:3:{i:0;s:14:"emphasis_close";i:1;a:0:{}i:2;i:314;}i:10;a:3:{i:0;s:5:"cdata";i:1;a:1:{i:0;s:49:" dans le champ de recherche puis en cliquant sur ";}i:2;i:316;}i:11;a:3:{i:0;s:13:"emphasis_open";i:1;a:0:{}i:2;i:365;}i:12;a:3:{i:0;s:5:"cdata";i:1;a:1:{i:0;s:17:"Créer cette page";}i:2;i:367;}i:13;a:3:{i:0;s:14:"emphasis_close";i:1;a:0:{}i:2;i:384;}i:14;a:3:{i:0;s:5:"cdata";i:1;a:1:{i:0;s:1:".";}i:2;i:386;}i:15;a:3:{i:0;s:7:"p_close";i:1;a:0:{}i:2;i:387;}i:16;a:3:{i:0;s:6:"plugin";i:1;a:4:{i:0;s:12:"data_related";i:1;N;i:2;i:5;i:3;s:69:"---- datarelated users ----
cols             : Titre, Personnage
----";}i:2;i:389;}i:17;a:3:{i:0;s:12:"document_end";i:1;a:0:{}i:2;i:389;}}