a:15:{i:0;a:3:{i:0;s:14:"document_start";i:1;a:0:{}i:2;i:0;}i:1;a:3:{i:0;s:6:"plugin";i:1;a:4:{i:0;s:10:"data_entry";i:1;a:5:{s:4:"data";a:2:{s:5:"titre";s:19:"Joueur (sous-fifre)";s:10:"personnage";s:6:"Zombie";}s:4:"cols";a:2:{s:5:"titre";a:6:{s:7:"colname";s:5:"titre";s:5:"multi";b:0;s:3:"key";s:5:"titre";s:7:"origkey";s:5:"titre";s:5:"title";s:5:"titre";s:4:"type";s:0:"";}s:10:"personnage";a:6:{s:7:"colname";s:10:"personnage";s:5:"multi";b:0;s:3:"key";s:10:"personnage";s:7:"origkey";s:10:"personnage";s:5:"title";s:10:"personnage";s:4:"type";s:0:"";}}s:7:"classes";s:4:"user";s:3:"pos";i:1;s:3:"len";i:94;}i:2;i:5;i:3;s:94:"---- dataentry user ----
titre            : Joueur (sous-fifre)
personnage       : Zombie
----";}i:2;i:1;}i:2;a:3:{i:0;s:10:"listu_open";i:1;a:0:{}i:2;i:95;}i:3;a:3:{i:0;s:13:"listitem_open";i:1;a:1:{i:0;i:1;}i:2;i:95;}i:4;a:3:{i:0;s:16:"listcontent_open";i:1;a:0:{}i:2;i:95;}i:5;a:3:{i:0;s:5:"cdata";i:1;a:1:{i:0;s:29:" Mail: romain.lalune@yahoo.fr";}i:2;i:100;}i:6;a:3:{i:0;s:17:"listcontent_close";i:1;a:0:{}i:2;i:129;}i:7;a:3:{i:0;s:14:"listitem_close";i:1;a:0:{}i:2;i:129;}i:8;a:3:{i:0;s:13:"listitem_open";i:1;a:1:{i:0;i:1;}i:2;i:129;}i:9;a:3:{i:0;s:16:"listcontent_open";i:1;a:0:{}i:2;i:129;}i:10;a:3:{i:0;s:5:"cdata";i:1;a:1:{i:0;s:20:" Twitter: @Namor_RDM";}i:2;i:133;}i:11;a:3:{i:0;s:17:"listcontent_close";i:1;a:0:{}i:2;i:153;}i:12;a:3:{i:0;s:14:"listitem_close";i:1;a:0:{}i:2;i:153;}i:13;a:3:{i:0;s:11:"listu_close";i:1;a:0:{}i:2;i:153;}i:14;a:3:{i:0;s:12:"document_end";i:1;a:0:{}i:2;i:153;}}