a:3:{i:0;a:3:{i:0;s:14:"document_start";i:1;a:0:{}i:2;i:0;}i:1;a:3:{i:0;s:6:"plugin";i:1;a:4:{i:0;s:10:"data_entry";i:1;a:5:{s:4:"data";a:8:{s:6:"pseudo";s:7:"lanodan";s:10:"personnage";s:23:"Loup, Humain 2.0, Poney";s:5:"genre";s:12:"il/ille/elle";s:8:"courriel";s:24:"haelwenn.monnier@free.fr";s:3:"gpg";s:50:"8E4B AA5E E6FB D5A8 D04F  3BE5 C873 8479 4BBE BBAD";s:4:"xmpp";s:18:"lanodan@jappix.com";s:4:"site";s:29:"http://lanodan.the-delta.net/";s:12:"architecture";a:4:{i:0;s:5:"amd64";i:1;s:5:"armv7";i:2;s:6:"armv6l";i:3;s:4:"i686";}}s:4:"cols";a:8:{s:6:"pseudo";a:6:{s:7:"colname";s:6:"pseudo";s:5:"multi";b:0;s:3:"key";s:6:"pseudo";s:7:"origkey";s:6:"pseudo";s:5:"title";s:6:"pseudo";s:4:"type";s:0:"";}s:10:"personnage";a:6:{s:7:"colname";s:10:"personnage";s:5:"multi";b:0;s:3:"key";s:10:"personnage";s:7:"origkey";s:10:"personnage";s:5:"title";s:10:"personnage";s:4:"type";s:0:"";}s:5:"genre";a:6:{s:7:"colname";s:5:"genre";s:5:"multi";b:0;s:3:"key";s:5:"genre";s:7:"origkey";s:5:"genre";s:5:"title";s:5:"genre";s:4:"type";s:0:"";}s:8:"courriel";a:6:{s:7:"colname";s:8:"courriel";s:5:"multi";b:0;s:3:"key";s:8:"courriel";s:7:"origkey";s:8:"courriel";s:5:"title";s:8:"courriel";s:4:"type";s:0:"";}s:3:"gpg";a:6:{s:7:"colname";s:3:"GPG";s:5:"multi";b:0;s:3:"key";s:3:"gpg";s:7:"origkey";s:3:"GPG";s:5:"title";s:3:"GPG";s:4:"type";s:0:"";}s:4:"xmpp";a:6:{s:7:"colname";s:4:"XMPP";s:5:"multi";b:0;s:3:"key";s:4:"xmpp";s:7:"origkey";s:4:"XMPP";s:5:"title";s:4:"XMPP";s:4:"type";s:0:"";}s:4:"site";a:6:{s:7:"colname";s:4:"Site";s:5:"multi";b:0;s:3:"key";s:4:"site";s:7:"origkey";s:4:"Site";s:5:"title";s:4:"Site";s:4:"type";s:0:"";}s:12:"architecture";a:6:{s:7:"colname";s:13:"Architectures";s:5:"multi";b:1;s:3:"key";s:12:"architecture";s:7:"origkey";s:12:"Architecture";s:5:"title";s:12:"Architecture";s:4:"type";s:0:"";}}s:7:"classes";s:4:"user";s:3:"pos";i:1;s:3:"len";i:378;}i:2;i:5;i:3;s:378:"---- dataentry user ----
pseudo           : lanodan
personnage       : Loup, Humain 2.0, Poney
genre            : il/ille/elle
courriel         : haelwenn.monnier@free.fr
GPG              : 8E4B AA5E E6FB D5A8 D04F  3BE5 C873 8479 4BBE BBAD
XMPP             : lanodan@jappix.com
Site             : http://lanodan.the-delta.net/
Architectures    : amd64, armv7, armv6l, i686
----";}i:2;i:1;}i:2;a:3:{i:0;s:12:"document_end";i:1;a:0:{}i:2;i:1;}}